GEOG728 Final Project Slides
…
KS_pop[,"BASENAME"] 

## # A tibble: 105 x 1
##    BASENAME  
##    <chr>     
##  1 Allen     
##  2 Anderson  
##  3 Atchison  
##  4 Barber    
##  5 Barton    
##  6 Bourbon   
##  7 Brown     
##  8 Butler    
##  9 Chase     
## 10 Chautauqua
## # ... with 95 more rows

KS_pop[,"POP100"] #Filter to these two

## # A tibble: 105 x 1
##    POP100
##     <int>
##  1  12526
##  2   7836
##  3  16348
##  4   4228
##  5  25493
##  6  14360
##  7   9508
##  8  67380
##  9   2572
## 10   3379
## # ... with 95 more rows
…
KS_gdp_2020 <- KS_gdp_2020 %>% 
  mutate_at("County", str_replace, ", KS", "") #Remove a suffix I don't need

#Population
names(KS_pop)[names(KS_pop) == "BASENAME"] <- "County"
names(KS_pop)[names(KS_pop) == "POP100"] <- "Population"

We also need to make sure each data set is the same type, and lets inspect our work so far.

tibble::as_tibble(base_totals)

## # A tibble: 24 x 2
##    County     Amount
##    <chr>       <int>
##  1 Allen     2905095
##  2 Atchison    13500
##  3 Barton    3000000
##  4 Butler   15500000
##  5 Doniphan   226000
##  6 Douglas   5000000
##  7 Ellis     2623300
##  8 Franklin  5000000
##  9 Graham     290178
## 10 Harper    3000000
## # ... with 14 more rows

tibble::as_tibble(KS_gdp_2020)

## # A tibble: 105 x 2
##    County         GDP
##    <chr>        <dbl>
##  1 Allen       607820
##  2 Anderson    290651
##  3 Atchison    727287
##  4 Barber      186697
##  5 Barton     1235615
##  6 Bourbon     633432
##  7 Brown       545290
##  8 Butler     2566780
##  9 Chase       126006
## 10 Chautauqua   82164
## # ... with 95 more rows

tibble::as_tibble(KS_pop)

## # A tibble: 105 x 2
##    County     Population
##    <chr>           <int>
##  1 Allen           12526
##  2 Anderson         7836
##  3 Atchison        16348
##  4 Barber           4228
##  5 Barton          25493
##  6 Bourbon         14360
##  7 Brown            9508
##  8 Butler          67380
##  9 Chase            2572
## 10 Chautauqua       3379
## # ... with 95 more rows
…
